1 10 20
100 200 125
201 210 89
900 1000 174
802194 984446 525
79732 544821 470
427834 555509 470
714510 793356 468
234899 669296 509
157168 834684 509
443627 461918 444
557083 638656 509
361480 536348 470
244180 375970 441
313413 441266 449
388137 590136 470
464172 324411 449
674347 831242 504
282744 781037 509
459600 832684 509
785950 830309 468
616037 838408 525
8485 917779 525
517094 842009 525
128448 567818 470
137294 259308 443
239736 912476 525
935225 186427 525
383159 991293 525
674060 427521 509
584591 691031 509
223860 820635 509
818228 842297 525
214566 569783 470
16760 504997 449
167121 22027 383
723158 861378 525
607400 986180 525
282617 821962 509
48671 457495 449
33770 947471 525
36005 160026 383
86004 405653 443
412436 851379 525
429568 814969 509
87683 224718 386
404326 917484 525
274659 709411 509
655419 865301 525
360957 945392 525
956811 707074 525
230689 422300 449
767650 870990 525
575937 837241 509
120117 925904 525
695638 406853 509
235933 846806 525
190365 903640 525
342421 605681 470
257756 927087 525
66703 992462 525
241464 607659 470
940155 988821 458
435178 698557 509
5774 600454 470
121649 826978 509
338913 423573 449
89321 849309 525
123804 179886 383
392158 147037 443
32780 532161 470
517790 928463 525
484911 677989 509
143663 493847 449
43504 88725 351
677755 912437 525
243884 659080 509
20227 556391 470
836855 958825 525
847555 472199 525
154602 971552 525
383078 824566 509
125550 943376 525
901936 948028 507
129121 969707 525
497416 340278 449
49022 488066 449
871996 954676 507
203233 680407 509
231935 970240 525
181220 246509 443
785811 830132 468
329674 846141 525
101070 925825 525
253649 552994 470
337115 694867 509
575697 661889 509
258163 852035 525
272697 453707 449
179292 428212 449
121572 930772 525
12238 918056 525
407899 565463 470
141337 223668 386
